<?xml version="1.0" encoding="UTF-8" standalone="no"?>
<!-- Created with Inkscape (http://www.inkscape.org/) -->

<svg
   xmlns:dc="http://purl.org/dc/elements/1.1/"
   xmlns:cc="http://creativecommons.org/ns#"
   xmlns:rdf="http://www.w3.org/1999/02/22-rdf-syntax-ns#"
   xmlns:svg="http://www.w3.org/2000/svg"
   xmlns="http://www.w3.org/2000/svg"
   xmlns:sodipodi="http://sodipodi.sourceforge.net/DTD/sodipodi-0.dtd"
   xmlns:inkscape="http://www.inkscape.org/namespaces/inkscape"
   width="81.69371"
   height="48.399086"
   id="svg3295"
   version="1.1"
   inkscape:version="0.48.0 r9654"
   sodipodi:docname="logo">
  <defs
     id="defs3297" />
  <sodipodi:namedview
     id="base"
     pagecolor="#ffffff"
     bordercolor="#666666"
     borderopacity="1.0"
     inkscape:pageopacity="0.0"
     inkscape:pageshadow="2"
     inkscape:zoom="0.7"
     inkscape:cx="110.13258"
     inkscape:cy="-7.2290231"
     inkscape:document-units="px"
     inkscape:current-layer="layer1"
     showgrid="false"
     fit-margin-top="0"
     fit-margin-left="0"
     fit-margin-right="0"
     fit-margin-bottom="0"
     inkscape:window-width="1280"
     inkscape:window-height="657"
     inkscape:window-x="-8"
     inkscape:window-y="-8"
     inkscape:window-maximized="1" />
  <metadata
     id="metadata3300">
    <rdf:RDF>
      <cc:Work
         rdf:about="">
        <dc:format>image/svg+xml</dc:format>
        <dc:type
           rdf:resource="http://purl.org/dc/dcmitype/StillImage" />
        <dc:title></dc:title>
      </cc:Work>
    </rdf:RDF>
  </metadata>
  <g
     inkscape:label="Layer 1"
     inkscape:groupmode="layer"
     id="layer1"
     transform="translate(-264.86742,-762.44836)">
    <text
       sodipodi:linespacing="125%"
       id="text3777"
       y="790.59851"
       x="262.76569"
       style="font-size:39.64857864px;font-style:normal;font-variant:normal;font-weight:normal;font-stretch:normal;text-align:start;line-height:125%;letter-spacing:1.92063355px;word-spacing:0px;writing-mode:lr-tb;text-anchor:start;fill:#ffffff;fill-opacity:1;stroke:none;font-family:Rubik Medium;-inkscape-font-specification:'Rubik Medium,'"
       xml:space="preserve"><tspan
         style="font-size:39.64857864px;font-style:normal;font-variant:normal;font-weight:normal;font-stretch:normal;text-align:start;line-height:125%;letter-spacing:1.92063355px;writing-mode:lr-tb;text-anchor:start;fill:#ffffff;fill-opacity:1;font-family:Rubik Medium;-inkscape-font-specification:'Rubik Medium,'"
         y="790.59851"
         x="262.76569"
         id="tspan3779"
         sodipodi:role="line">CN¥</tspan></text>
    <text
       transform="scale(0.97592681,1.024667)"
       sodipodi:linespacing="125%"
       id="text3781"
       y="791.11554"
       x="271.31589"
       style="font-size:21.20155525px;font-style:normal;font-variant:normal;font-weight:normal;font-stretch:normal;text-align:start;line-height:125%;letter-spacing:1.53744197px;word-spacing:0px;writing-mode:lr-tb;text-anchor:start;fill:#ffffff;fill-opacity:1;stroke:none;font-family:Rubik Medium;-inkscape-font-specification:'Rubik Medium,'"
       xml:space="preserve"><tspan
         style="font-size:21.20155525px;font-style:normal;font-variant:normal;font-weight:normal;font-stretch:normal;text-align:start;line-height:125%;letter-spacing:1.53744197px;writing-mode:lr-tb;text-anchor:start;fill:#ffffff;fill-opacity:1;font-family:Rubik Medium;-inkscape-font-specification:'Rubik Medium,'"
         y="791.11554"
         x="271.31589"
         id="tspan3783"
         sodipodi:role="line">com.ua</tspan></text>
  </g>
</svg>
