4903ed8d856ef1aaab716f7a687af6be
008e62193623dfe5dbd5ada0eb958642
1e6e37a3502906d71d9e18f5d728d9cf
3ffda352a6ae5ca3ec7717ae69ce7e0b
480b5072e0c604e2dbba230b1be8376e
807054a9f119845dd62a62ff71cc60f9
922ee8190e14f36e1467d06aa483deef
d1575122bfa854f49f1ea1df9c281953
e0d12c9279aa7b8ce0c5b487303ad809
b4be1119a1be569b8de12e5f423b43fe
e8e9196f9a81f25bb6350c6430c79f3f
846fbd74f48fdee56c53ac39a21a472e
4ac5ea126d9a588e542413b240f99478
5e34dbf065907ded7b26456f497f31c4
f4cc10b0a9ed09df4d03ca6d0af07cbb
d8675318a11abf49e6753f9e52983f6e
a29613556310610827eb3a599ee2f8a0
8a320bc78582c5a9a19dba2b99deeec5
e5d8f8670cdf3416f3bd2c711c11d2b3
ef94d8043313dbdf57780b7e39e61b12
230136aba1e6351d975b0fb2027f3701
770bcecdafba0c84163457ed7fb8862b
6e3b20201c9c0d88858b45503cf42e39
57514994d9a29d21fbb2902981294765
6c06ba71a2c6ca2aa225b7a93ab52546
c85ea2a364bb3ea74bd76eaaf6b87cb4
f499717e4d1ebf59008f7157c1beefbb
45c55f875785b26ff3ece88cfc7024ba
cf314ee4b1e765e18baf28e3620cd9a9
efafd71eeb64659a1b3d49168bd82471
1439877ff5d7c6702cf98723436faa0a
7e388a0e4d85b908720b1b4017f67b83
891e5f2cf49b5b53bcebe497207addfb
e6913ac17a2b358d369b62148ae179a4
5f6454df1b56417f5c0723186c571b12
7d739f915a2c7ec05022ab7e8609b6ee
6e38075c539c24d9e8521ece25275ae1
120f8dd31aede9c60bf0265a0695a197
cf5f7c34e6946bb0b5232f0f452661e8
d832537383e3cc12082de2c495e79a4c
1989e884229e3c7e6e121bf07cfae1f4
047d7a8fcb158c834f9ddbe52a3ff5f8
8dd8c6f249b9b8b63e3765f2bbedc156
30052dc0674e8aa227050dffdcaa659f
62e42ef0cb95395a9ee133dd3911b96b
c642e0b78d2d1fa98e90f17c4f00842a
168271ff02e6954eab5628083e87f241
94ba5eb0cb2f5ed7d8ec6a51ead590f4
246f27c7731fbc7f259973c844af3ca9
a859392add746157207894f8f34db331
bdd14cf1139067dcf8489454f4ae3b45
6ef65265aed591363280eb129dfbd7a2
2f28530b8c6a5a3ea5406eed3a357773
7fdea4c039306515fe822060e9414cb6
e0a0a22ad4abfc877a8b0dd52b3121f4
30e4ce4046a1784165638e4f5ea5dd57
f5139aedbba70b0db9bc73186179ad49
938633836cc58195ad57f9aa0d2678bd
b78c7d7ee54054d1cb0e643d4bb8bb85
53ad1704c59f683fd4b137c0ed5d687e
d383cb9e042d407e4be3975f2b77ba8f
9af9ad7b322af8362f8e523e3823024d
6dd49d1e84a3d0afa82c7a77c5625734
865731756fa28125ddaf673b56676908
d0f2432dea5d556e63fb42995be45040
49a17647450f994babdf7d44ccff3e32
6f6ca7319af63fabdde61460c1e60e7a
deaa912e21ad9d2ae514a07e417dc7c0
4c5cbf8066cb7140dd55b4b06d585401
4f9acdf823025bfb6057cf0c8bb96102
8c472520a440426ba96dc868eb86f927
fb741a06bb6aba96508bcffadc8105fb
57b7db4452e67d470d2cd0dc0d624364
4e97a5ae2a0e73907828abe068d698d3
e2de480bd71ba3e438911eb63bf434fb
ada5fb967131c57ede0b636a92fde02c
abb0954c8173bd099e042747907d7c71
836ba5a3d79cdef8516e63f3c4c008b6
812612c7e6700620f5d3527f8cc3f6f6
24d329faf53b28ce1616b834abe9700c
8fe9766ae77e8969129cd594bda532a6
c2be121eed37ddb26123b84d807ac14f
41c8982dd4356ede65b2ac05911499d8
a121b1a179b7ecb18fea3887ba0a8514
889aea684615fdd4d9da205dd44b0339
047973e179b34189ca794b1354a40f1b
b0fcebf6a187cd9fa57909d3b1b84151
c81cfabc93e09fcdea6e1993ecfee6db
104ce5771b6489475b756386efa449cb
274852b1ea1016d630545727f6f623a5
75adbb89d21c623d671082f1738e10fe
b8c3e031e2ba5787e29450004aefd463
7c2cb74ac24f6cbfbbe94af26fcce269
7c20aec1e863462c4492e609f82f468e
72de9d705f7d33f6a9851740c24c9f84
aed51bed750cef5367cfabdf92acdf93
dff119cb7e30a6f213a040f9cb10f613
2cc4bba6e3412a94a53c2ea875bb4d47
6d53ed10d21589bd907ec2ab67f79b00
01f8b1b1c8f404f68c8016298783bd62
42e079383a4f5ac684fc5785c273df44
1eb960ede5c91db861ac48d6b880b7af
cbe5c9df6419e752bfb3767d9798afef
3f2af5d32d8a77f6b2876bea73d84c27
e3faf33166db42ee6f2707229041520a
856a9022fa28bac37d26a9e8113f973c
90bda1fa80f1db2ab6775ddc546f8082
083112438141261f890a6e5962f9683f
22f267560d30987ad8a4c438c5bc3d6c
6f85f334dd076a781e3986c85ebcfdbb
4766d0facc7c9035fde762337cc75ab7
d7762aa7ea2fadbe153ec218aaaa58ad
4780ee18fdfffd5da85527546565c156
ca80ad25db743c29bc2808f324d5a59e
4cd4f5a20c34d8dee3de5788f01425d4
b649bc85ffd0e1edc0172872d2440aa9
c5a9ed155e051f74baf796fca67825f8
58a8265cf1aba2844831761a8c398369
be3c248e75ef0ce32fb5625896ef67d5
ba4764e0b64ec9235e88a64ec20acc21
72a046bb8f000c88ff404018d26125aa
85d90f2d6d24acb54fbee5bfd71c8af3
349a6c0dbc74fec4c8f768ba6c6169d5
48750f76ad06a67ec9fb13f2f5847cda
b83f5bc9c18d96cb05a5874bf8b3c0e3
16ee700dea0b0146d623f6074d95abc3
bfe0a9f54aeb0bf6f8da0a976d616999
2080d21414d491a9e5a49737e1b3c303
a67e77486a1e50be4b5cdbc64ab89c15
aa9962e274eb3c21acedebe384ccc956
81233f53bb4fa9586bdea63c94a0c019
66ad1a29e598d36a003379cafa2b6491
e958bbcb13b8aaa373202398ce1af4c8
1b75e08d2ead5e992adfc62a7171d66e
4aecdce0730f48a2836ba806f6e9e2ba
1e7ad0c2be5e1de0bf9f7f8c0cc6d2c5
8479fe6ab21ef37862c18e9f6cbda774
0da30c2b81f0b6d422eac595935e217a
b51106dce781b99f6017c1dae116c80d
cbf470f9a511aae11577f818b7a8c73d
ec1fbcf048861ff56bc98191bb1c27ee
915cb86a94dd44458b79f8b7768c72eb
eb3aa7c2c862535e7e8725371d16bcc4
63bc9ec2b1b4cc8462f76300b4d66623
717b2a4a89519bf7a7a027a8030d75b7
dc765c1abccbc0b0367e8f5293d22371
7998cd69c47944677d6402389b8ed7fa
b0080eabc7ce71a8b8b92c22ede20654
deac320aa073c603a23940fcc80e07f5
44cdb068037cfce7d9e9876a4d58026f
f5cd98be407886f125ed9781e840afe2
01c9eaec17790f6a6a29b333f10ddf1b
dfe633c9c9ece0af78b04b60325df9a6
71f651dbc7f0b9c49942c5aa67fa245f
347691fd2ce4dc9a855eeb9a14dfff37
20aae3ec40fad460dd839c8cf2c96f9b
a62b219182035efdd1c4361fd2dca07f
041e37c3c2b700c46f7a61f99cb72981
4a46c853fec22b8cd3aea6f910b3168d
e087c99216b215b71fe19f8826f293a1
f9185d40c177beb847de992c5b98dcc5
55e7c23df49617677e415610ab270a24
50171e441e20f43e6c9bf066d4c8f88a
25ca02675389670361c75144c6417168
7a9aee84e17015812d87e93fcbdcbdf4
74b80d050c4a528a7c6e41cec836915f
fe961534eb896fb01be1909463b6ec18
da7edd795460e4477190fb8fe92b053a
b9c851b13e4086e546cc838de6c3b593
09b4e10549abd8c33775b3c3efbe4425
ebf00641c573d38610d5aca0849e14ae
6e150e82545ad91c7616e43e32d62905
6595ee5d48c2b96a76d5821107a4f1d6
96780d177a82efbdc8aa2f2b335e0607
e6dcaf8c1b2faa8f6bd6ed402fd67a7e
00df0dfcae41c92119bf6bab10e77621
3b9a58469c6b6a75dbf7504bb9ad019b
9114c79412398fd5009b9439acc9fe35
bc9f330133367a746d6d488e13404089
00f8fa69698de67fe0823d75ec56a633
a1cd1dc80cdc50837ace2a5be9f8387d
28b5d3dd2aa73786a497450df8bf28d7
7e7fc387e263da6fa0603b1a4c767429
de7ad31ed26f2b02ce0a110fb1d69f40
aa88f4319863000a6b46f5f28f709305
61c39a60df77a1e5222d8d258da6e26a
722a30c0fc16bcaa51290bb0c153ad62
daaafe8f44505c722d9317f9f7bc3fc2
59c34b0fd5fa29f4c2ab8abfaa84cf2a
5faf1f3ea359cc43bf6d9aa5a3318c94
f311c8c7d20c7cd19edfbfc2e300a2c7
1afd41bdfd2fdcda6abc49dbd45624ff
1a7c2397472161b9e89862b2a807f102
7981f89528cd283e837421a50f7aa69c
484c65b67495defa4c7c4e0647b98fef
89919963ae33f00c25543430e5d8e104
eb8b55424f4e777a9ef4d2bfc49d949b
c4a20ff3a816fb95f248b1cc2eca873d
f900ae2beb68ef98c86c498f1eda4839
7c45f53691849a9c6b7c5b57a17c2c0a
d8667298a30c070f9218d9a7554c3aaf
ffb80c86dfc4b31c9bdd2b63d28d4197
68b81323ba691fe8dd6fb984b29adc8d
e288b5986e8c31fbb72ad9138af34b95
1c01dde631949baca96c5edd05d4cc2a
6cf3e03a78ef7477ba4d735ea98b60be
bee36f5752c4da0ce89c7cfe3554a3aa
