<?xml version="1.0" encoding="UTF-8" standalone="no"?>
<!-- Created with Inkscape (http://www.inkscape.org/) -->

<svg
   xmlns:dc="http://purl.org/dc/elements/1.1/"
   xmlns:cc="http://creativecommons.org/ns#"
   xmlns:rdf="http://www.w3.org/1999/02/22-rdf-syntax-ns#"
   xmlns:svg="http://www.w3.org/2000/svg"
   xmlns="http://www.w3.org/2000/svg"
   xmlns:xlink="http://www.w3.org/1999/xlink"
   xmlns:sodipodi="http://sodipodi.sourceforge.net/DTD/sodipodi-0.dtd"
   xmlns:inkscape="http://www.inkscape.org/namespaces/inkscape"
   width="345.66299"
   height="114.75239"
   id="svg3082"
   version="1.1"
   inkscape:version="0.48.0 r9654"
   sodipodi:docname="btn-bg">
  <defs
     id="defs3084">
    <linearGradient
       inkscape:collect="always"
       xlink:href="#linearGradient3944"
       id="linearGradient3950"
       x1="346.06512"
       y1="479.00491"
       x2="447.74844"
       y2="455.93393"
       gradientUnits="userSpaceOnUse"
       gradientTransform="matrix(1.5064621,0,0,1.8836559,-152.58814,-384.9614)" />
    <linearGradient
       inkscape:collect="always"
       id="linearGradient3944">
      <stop
         style="stop-color:#00cdaf;stop-opacity:1;"
         offset="0"
         id="stop3946" />
      <stop
         style="stop-color:#009393;stop-opacity:1"
         offset="1"
         id="stop3948" />
    </linearGradient>
    <linearGradient
       y2="455.93393"
       x2="447.74844"
       y1="479.00491"
       x1="346.06512"
       gradientTransform="matrix(1.5064621,0,0,1.8836559,-209.52394,-381.44287)"
       gradientUnits="userSpaceOnUse"
       id="linearGradient3080"
       xlink:href="#linearGradient3944"
       inkscape:collect="always" />
  </defs>
  <sodipodi:namedview
     id="base"
     pagecolor="#ffffff"
     bordercolor="#666666"
     borderopacity="1.0"
     inkscape:pageopacity="0.0"
     inkscape:pageshadow="2"
     inkscape:zoom="0.35"
     inkscape:cx="176.40292"
     inkscape:cy="8.8047562"
     inkscape:document-units="px"
     inkscape:current-layer="layer1"
     showgrid="false"
     fit-margin-top="0"
     fit-margin-left="0"
     fit-margin-right="0"
     fit-margin-bottom="0"
     inkscape:window-width="1920"
     inkscape:window-height="1017"
     inkscape:window-x="1912"
     inkscape:window-y="-8"
     inkscape:window-maximized="1" />
  <metadata
     id="metadata3087">
    <rdf:RDF>
      <cc:Work
         rdf:about="">
        <dc:format>image/svg+xml</dc:format>
        <dc:type
           rdf:resource="http://purl.org/dc/dcmitype/StillImage" />
        <dc:title></dc:title>
      </cc:Work>
    </rdf:RDF>
  </metadata>
  <g
     inkscape:label="Layer 1"
     inkscape:groupmode="layer"
     id="layer1"
     transform="translate(-198.59708,-426.41455)">
    <rect
       y="426.41455"
       x="198.59708"
       height="114.75239"
       width="345.66299"
       id="rect3936"
       style="fill:url(#linearGradient3080);fill-opacity:1;fill-rule:nonzero;stroke:none" />
    <rect
       style="fill:#50af95;fill-opacity:1;fill-rule:nonzero;stroke:none"
       id="rect3952"
       width="149.94591"
       height="126.55272"
       x="538.93427"
       y="477.26056"
       transform="matrix(1,0,-0.44799266,0.89403723,0,0)" />
  </g>
</svg>
